{
    "headings":[
        "Firstname",
        "Surname"
    ],
    "pagingInfo": {
        "totalItems": 8,
        "pages": 2,
        "currentPage": 1,
        "pageSize": 4
    },
    "items": [
	{ 
        "id": 1, 
        "firstname": "Jon",
        "surname": "Adams" 
    },
	{
		"id": 2 ,
        "firstname": "Bobby",
		"surname": "Bigsby"
	},
	{
		"id": 3,
        "firstname": "Peter",
		"surname": "Charles"
	},
	{
		"id": 4,
        "firstname": "Ronald",
		"surname": "Donaldson"
	}]
}